…
``` r
# hourly bins
flights %>% count(cut_width(arr_delay, 60, boundary = 0))
```

    ## # A tibble: 22 × 2
    ##    `cut_width(arr_delay, 60, boundary = 0)`      n
    ##                                      <fctr>  <int>
    ## 1                                [-120,-60]    240
    ## 2                                   (-60,0] 194102
    ## 3                                    (0,60] 105215
    ## 4                                  (60,120]  17755
    ## 5                                 (120,180]   6191
    ## 6                                 (180,240]   2291
    ## 7                                 (240,300]    941
    ## 8                                 (300,360]    365
    ## 9                                 (360,420]    144
    ## 10                                (420,480]     37
    ## # ... with 12 more rows
…
