…
The workhorse for reading in csv files is called `read_csv()`. You give it a path to a csv file and it gives you back a tibble:

``` r
heights <- read_csv("heights.csv")
#> Parsed with column specification:
#> cols(
#>   earn = col_double(),
#>   height = col_double(),
#>   sex = col_character(),
#>   ed = col_integer(),
#>   age = col_integer(),
#>   race = col_character()
#> )
heights
#> # A tibble: 1,192 × 6
#>     earn   height    sex    ed   age     race
#>    <dbl>    <dbl>  <chr> <int> <int>    <chr>
#> 1  50000 74.42444   male    16    45    white
#> 2  60000 65.53754 female    16    58    white
#> 3  30000 63.62920 female    16    29    white
#> 4  50000 63.10856 female    16    91    other
#> 5  51000 63.40248 female    17    39    white
#> 6   9000 64.39951 female    15    26    white
#> 7  29000 61.65633 female    12    49    white
#> 8  32000 72.69854   male    17    46    white
#> 9   2000 72.03947   male    15    21 hispanic
#> 10 27000 72.23493   male    12    26    white
#> # ... with 1,182 more rows
```
…
