…
Once we confirmed that we can extract each variable individually, we can combine them into a single tibble:

``` r
got_tibble <- tibble(
  name = got_chars %>% map_chr("name"),
  id = got_chars %>% map_int("id"),
  alive = got_chars %>% map_lgl("alive"),
  gender = got_chars %>% map_chr("gender"),
  books = got_chars %>% map("books")
)
got_tibble
#> # A tibble: 29 x 5
#>                  name    id alive gender     books
#>                 <chr> <int> <lgl>  <chr>    <list>
#>  1      Theon Greyjoy  1022  TRUE   Male <chr [3]>
#>  2   Tyrion Lannister  1052  TRUE   Male <chr [2]>
#>  3  Victarion Greyjoy  1074  TRUE   Male <chr [3]>
#>  4               Will  1109 FALSE   Male <chr [1]>
#>  5         Areo Hotah  1166  TRUE   Male <chr [3]>
#>  6              Chett  1267 FALSE   Male <chr [2]>
#>  7            Cressen  1295 FALSE   Male <chr [2]>
#>  8    Arianne Martell   130  TRUE Female <chr [4]>
#>  9 Daenerys Targaryen  1303  TRUE Female <chr [1]>
#> 10     Davos Seaworth  1319  TRUE   Male <chr [1]>
#> # ... with 19 more rows
```
…
We can put all these bits together to make a tibble:

``` r
gh_tibble <- tibble(
  name =     gh_flat %>% map_chr("name"),
  issues =   gh_flat %>% map_int("open_issues_count"),
  wiki =     gh_flat %>% map_lgl("has_wiki"),
  homepage = gh_flat %>% map_chr("homepage", .default = ""),
  owner =    gh_flat %>% map_chr(c("owner", "login"))
)
gh_tibble
#> # A tibble: 176 x 5
#>           name issues  wiki homepage       owner
#>          <chr>  <int> <lgl>    <chr>       <chr>
#>  1       after      0  TRUE          gaborcsardi
#>  2      argufy      6  TRUE          gaborcsardi
#>  3         ask      4  TRUE          gaborcsardi
#>  4 baseimports      0  TRUE          gaborcsardi
#>  5      citest      0  TRUE          gaborcsardi
#>  6  clisymbols      0  TRUE          gaborcsardi
#>  7      cmaker      0  TRUE          gaborcsardi
#>  8       cmark      0  TRUE          gaborcsardi
#>  9  conditions      0  TRUE          gaborcsardi
#> 10      crayon      7  TRUE          gaborcsardi
#> # ... with 166 more rows
```
…
